{
	"id": "520b1b2f-deec-41f5-844f-4b9b9121057f",
	"name": "QA training exercise 2",
	"values": [
		{
			"key": "currentIdMovie",
			"value": "null",
			"type": "default",
			"enabled": true
		},
		{
			"key": "userAccessToken",
			"value": "null",
			"type": "default",
			"enabled": true
		}
	],
	"_postman_variable_scope": "environment",
	"_postman_exported_at": "2023-01-12T21:19:53.495Z",
	"_postman_exported_using": "Postman/10.7.0"
}